[
  { "name": "French", "value": 55 },
  { "name": "Italian", "value": 44 },
  { "name": "American", "value": 41 },
  { "name": "British", "value": 22 },
  { "name": "German", "value": 21 },
  { "name": "Dutch", "value": 15 },
  { "name": "Russian", "value": 9 },
  { "name": "Austrian", "value": 7 },
  { "name": "Netherlandish", "value": 6 },
  { "name": "Flemish", "value": 6 },
  { "name": "Spanish", "value": 5 },
  { "name": "Swiss", "value": 4 },
  { "name": "Japanese", "value": 3 },
  { "name": "Belgian", "value": 3 },
  { "name": "Other", "value": 25 }
]
