[
  { "label": "District of Columbia", "value": 37 },
  { "label": "Virginia", "value": 34 },
  { "label": "California", "value": 33 },
  { "label": "New York", "value": 33 },
  { "label": "Maryland", "value": 28 },
  { "label": "Pennsylvania", "value": 26 },
  { "label": "Arizona", "value": 24 },
  { "label": "New Mexico", "value": 18 },
  { "label": "Massachusetts", "value": 18 },
  { "label": "Utah", "value": 17 },
  { "label": "Washington", "value": 17 },
  { "label": "Colorado", "value": 16 },
  { "label": "Texas", "value": 16 },
  { "label": "Tennessee", "value": 15 },
  { "label": "Missouri", "value": 13 },
  { "label": "Georgia", "value": 12 },
  { "label": "North Carolina", "value": 12 },
  { "label": "New Jersey", "value": 11 },
  { "label": "Idaho", "value": 10 },
  { "label": "Kansas", "value": 10 },
  { "label": "Nebraska", "value": 10 },
  { "label": "Oregon", "value": 10 },
  { "label": "Florida", "value": 10 },
  { "label": "Montana", "value": 10 },
  { "label": "Ohio", "value": 10 },
  { "label": "Kentucky", "value": 9 },
  { "label": "West Virginia", "value": 9 },
  { "label": "Arkansas", "value": 8 },
  { "label": "South Carolina", "value": 8 },
  { "label": "Nevada", "value": 7 },
  { "label": "South Dakota", "value": 7 },
  { "label": "Oklahoma", "value": 6 },
  { "label": "Wyoming", "value": 6 },
  { "label": "Louisiana", "value": 6 },
  { "label": "Minnesota", "value": 6 },
  { "label": "Illinois", "value": 5 },
  { "label": "Mississippi", "value": 5 },
  { "label": "North Dakota", "value": 5 },
  { "label": "Delaware", "value": 4 },
  { "label": "Iowa", "value": 4 },
  { "label": "Indiana", "value": 4 },
  { "label": "Wisconsin", "value": 4 },
  { "label": "Alabama", "value": 3 },
  { "label": "Connecticut", "value": 3 },
  { "label": "Vermont", "value": 3 },
  { "label": "Rhode Island", "value": 2 },
  { "label": "Maine", "value": 1 },
  { "label": "New Hampshire", "value": 1 },
  { "label": "Michigan", "value": 1 }
]
